./a_001_pos.txt
./a_003_pos.txt
./a_004_pos.txt
./a_005_pos.txt
./anexo_pos.txt
./b_001_pos.txt
./b_003_pos.txt
./b_005_pos.txt
./b_008_pos.txt
./c_001_pos.txt
./c_002_pos.txt
./c_003_pos.txt
./c_004_pos.txt
./c_005_pos.txt
./c_006_pos.txt
./c_007_pos.txt
./c_008_pos.txt
./c_010_pos.txt
./f_002_pos.txt
./g_001_pos.txt
./g_002_pos.txt
./g_003_pos.txt
./g_004_pos.txt
./g_005_pos.txt
./g_006_pos.txt
./g_008_pos.txt
./g_010_pos.txt
./h_001_pos.txt
./l_001_pos.txt
./m_003_pos.txt
./m_010_pos.txt
./o_001_pos.txt
./p_001_pos.txt
./s_001_pos.txt
./v_001_pos.txt
./v_002_pos.txt
./v_004_pos.txt
./v_005_pos.txt
./va_004_pos.txt
